^C:\USERS\TOSHIBA\DOCUMENTS\VISUAL STUDIO 2012\PROJECTS\B17\B17\DEBUG\3DTEXTURE.OBJ|C:\USERS\TOSHIBA\DOCUMENTS\VISUAL STUDIO 2012\PROJECTS\B17\B17\DEBUG\ALAQSA.OBJ|C:\USERS\TOSHIBA\DOCUMENTS\VISUAL STUDIO 2012\PROJECTS\B17\B17\DEBUG\ALQIBLI.OBJ|C:\USERS\TOSHIBA\DOCUMENTS\VISUAL STUDIO 2012\PROJECTS\B17\B17\DEBUG\CAMERA.OBJ|C:\USERS\TOSHIBA\DOCUMENTS\VISUAL STUDIO 2012\PROJECTS\B17\B17\DEBUG\MODEL_3DS.OBJ|C:\USERS\TOSHIBA\DOCUMENTS\VISUAL STUDIO 2012\PROJECTS\B17\B17\DEBUG\POINT.OBJ|C:\USERS\TOSHIBA\DOCUMENTS\VISUAL STUDIO 2012\PROJECTS\B17\B17\DEBUG\SKYBOX.OBJ|C:\USERS\TOSHIBA\DOCUMENTS\VISUAL STUDIO 2012\PROJECTS\B17\B17\DEBUG\SOURCE.OBJ|C:\USERS\TOSHIBA\DOCUMENTS\VISUAL STUDIO 2012\PROJECTS\B17\B17\DEBUG\TEXTURE.OBJ
C:\USERS\TOSHIBA\DOCUMENTS\VISUAL STUDIO 2012\PROJECTS\B17\DEBUG\B17.ILK
C:\USERS\TOSHIBA\DOCUMENTS\VISUAL STUDIO 2012\PROJECTS\B17\DEBUG\B17.EXE
C:\USERS\TOSHIBA\DOCUMENTS\VISUAL STUDIO 2012\PROJECTS\B17\DEBUG\B17.PDB
